<?xml version="1.0" standalone="no"?>
<!DOCTYPE svg PUBLIC "-//W3C//DTD SVG 20010904//EN"
 "http://www.w3.org/TR/2001/REC-SVG-20010904/DTD/svg10.dtd">
<svg version="1.0" xmlns="http://www.w3.org/2000/svg"
 width="34.000000pt" height="42.000000pt" viewBox="0 0 34.000000 42.000000"
 preserveAspectRatio="xMidYMid meet">

<g transform="translate(0.000000,42.000000) scale(0.100000,-0.100000)"
fill="#000000" stroke="none">
<path d="M332 395 c0 -16 2 -22 5 -12 2 9 2 23 0 30 -3 6 -5 -1 -5 -18z"/>
<path d="M106 369 c-30 -26 -47 -33 -73 -30 l-33 3 0 -171 0 -171 170 0 170 0
0 60 c0 50 -3 61 -20 70 -13 7 -19 18 -16 28 3 9 8 38 11 63 5 37 3 48 -10 53
-9 3 -14 10 -10 16 3 5 -3 20 -14 32 -12 12 -21 27 -21 34 0 20 -25 34 -71 40
-39 5 -48 2 -83 -27z m129 -41 c11 -28 11 -35 -1 -49 -18 -20 -18 -29 1 -29 9
0 15 -9 15 -21 0 -13 -5 -19 -13 -16 -6 2 -19 -3 -27 -11 -13 -14 -12 -15 3
-9 25 9 21 -6 -8 -33 -20 -19 -30 -22 -42 -14 -20 12 -35 61 -22 70 5 3 2 12
-6 20 -19 19 -11 34 19 34 34 0 39 -11 14 -37 -18 -19 -20 -28 -12 -41 6 -9
20 -19 30 -20 18 -4 18 -3 0 11 -19 14 -19 14 0 25 16 10 17 13 4 22 -10 6
-11 10 -2 10 18 0 15 47 -4 58 -16 9 -15 12 2 35 25 34 32 34 49 -5z"/>
</g>
</svg>
